{
    "id": "trivium/anna",
    "name": "Anna",
    "namespace": "Theme\\Anna\\",
    "description": "Anna é o tema padrão do Trivium desde a versão 1.0",
    "author": "TriviumDevBr Technologies",
    "version": "1.0.0",
    "url": "https://trivium.dev.br",
    "required_plugins": [
        "blog",
        "contact",
        "gallery",
        "language",
        "block",
        "member"
    ]
}
